4x4_extend/syntolic.VCD
$date
	Fri Jan 17 10:28:14 2025
$end
$version
	Icarus Verilog
$end
$timescale
	1s
$end
$scope module tb $end
$var wire 1 ! read_data $end
$var wire 1 " done $end
$var wire 8 # data_in_B [7:0] $end
$var wire 8 $ data_in_A [7:0] $end
$var reg 7 % add_A_cnt [6:0] $end
$var reg 7 & add_B_cnt [6:0] $end
$var reg 1 ' clk $end
$var reg 1 ( data_valid $end
$var reg 1 ) read_reg $end
$var reg 1 * read_reg_1 $end
$var reg 1 + rst_n $end
$var reg 1 , start_compute $end
$var integer 32 - file [31:0] $end
$var integer 32 . i [31:0] $end
$var integer 32 / j [31:0] $end
$scope module top $end
$var wire 1 ' clk $end
$var wire 8 0 data_in_A [7:0] $end
$var wire 8 1 data_in_B [7:0] $end
$var wire 1 ( data_valid $end
$var wire 16 2 output_00 [15:0] $end
$var wire 16 3 output_01 [15:0] $end
$var wire 16 4 output_02 [15:0] $end
$var wire 16 5 output_03 [15:0] $end
$var wire 16 6 output_10 [15:0] $end
$var wire 16 7 output_11 [15:0] $end
$var wire 16 8 output_12 [15:0] $end
$var wire 16 9 output_13 [15:0] $end
$var wire 16 : output_20 [15:0] $end
$var wire 16 ; output_21 [15:0] $end
$var wire 16 < output_22 [15:0] $end
$var wire 16 = output_23 [15:0] $end
$var wire 16 > output_30 [15:0] $end
$var wire 16 ? output_31 [15:0] $end
$var wire 16 @ output_32 [15:0] $end
$var wire 16 A output_33 [15:0] $end
$var wire 1 + rst_n $end
$var wire 1 , start_compute $end
$var wire 1 B set_reg_path_7 $end
$var wire 1 C set_reg_path_6 $end
$var wire 1 D set_reg_path_5 $end
$var wire 1 E set_reg_path_4 $end
$var wire 1 F set_reg_path_3 $end
$var wire 1 G set_reg_path_2 $end
$var wire 1 H set_reg_path_1 $end
$var wire 1 ! read_data $end
$var wire 4 I in_valid_B [3:0] $end
$var wire 4 J in_valid_A [3:0] $end
$var wire 1 K in_valid_8 $end
$var wire 1 L in_valid_7 $end
$var wire 1 M in_valid_6 $end
$var wire 1 N in_valid_5 $end
$var wire 1 O in_valid_4 $end
$var wire 1 P in_valid_3 $end
$var wire 1 Q in_valid_2 $end
$var wire 1 R in_valid_1 $end
$var wire 1 " done $end
$var wire 8 S bf_to_pe_8 [7:0] $end
$var wire 8 T bf_to_pe_7 [7:0] $end
$var wire 8 U bf_to_pe_6 [7:0] $end
$var wire 8 V bf_to_pe_5 [7:0] $end
$var wire 8 W bf_to_pe_4 [7:0] $end
$var wire 8 X bf_to_pe_3 [7:0] $end
$var wire 8 Y bf_to_pe_2 [7:0] $end
$var wire 8 Z bf_to_pe_1 [7:0] $end
$var wire 8 [ R_pe32 [7:0] $end
$var wire 8 \ R_pe31 [7:0] $end
$var wire 8 ] R_pe30 [7:0] $end
$var wire 8 ^ R_pe22 [7:0] $end
$var wire 8 _ R_pe21 [7:0] $end
$var wire 8 ` R_pe20 [7:0] $end
$var wire 8 a R_pe12 [7:0] $end
$var wire 8 b R_pe11 [7:0] $end
$var wire 8 c R_pe10 [7:0] $end
$var wire 8 d R_pe02 [7:0] $end
$var wire 8 e R_pe01 [7:0] $end
$var wire 8 f R_pe00 [7:0] $end
$var wire 8 g B_pe23 [7:0] $end
$var wire 8 h B_pe22 [7:0] $end
$var wire 8 i B_pe21 [7:0] $end
$var wire 8 j B_pe20 [7:0] $end
$var wire 8 k B_pe13 [7:0] $end
$var wire 8 l B_pe12 [7:0] $end
$var wire 8 m B_pe11 [7:0] $end
$var wire 8 n B_pe10 [7:0] $end
$var wire 8 o B_pe03 [7:0] $end
$var wire 8 p B_pe02 [7:0] $end
$var wire 8 q B_pe01 [7:0] $end
$var wire 8 r B_pe00 [7:0] $end
$scope module buffer_row_A1 $end
$var wire 1 ' clk $end
$var wire 8 s data_in [7:0] $end
$var wire 1 R in_valid $end
$var wire 1 + rst_n $end
$var reg 8 t data_out [7:0] $end
$var integer 32 u i [31:0] $end
$upscope $end
$scope module buffer_row_A2 $end
$var wire 1 ' clk $end
$var wire 8 v data_in [7:0] $end
$var wire 1 Q in_valid $end
$var wire 1 + rst_n $end
$var reg 8 w data_out [7:0] $end
$var integer 32 x i [31:0] $end
$upscope $end
$scope module buffer_row_A3 $end
$var wire 1 ' clk $end
$var wire 8 y data_in [7:0] $end
$var wire 1 P in_valid $end
$var wire 1 + rst_n $end
$var reg 8 z data_out [7:0] $end
$var integer 32 { i [31:0] $end
$upscope $end
$scope module buffer_row_A4 $end
$var wire 1 ' clk $end
$var wire 8 | data_in [7:0] $end
$var wire 1 O in_valid $end
$var wire 1 + rst_n $end
$var reg 8 } data_out [7:0] $end
$var integer 32 ~ i [31:0] $end
$upscope $end
$scope module buffer_row_B1 $end
$var wire 1 ' clk $end
$var wire 8 !" data_in [7:0] $end
$var wire 1 N in_valid $end
$var wire 1 + rst_n $end
$var reg 8 "" data_out [7:0] $end
$var integer 32 #" i [31:0] $end
$upscope $end
$scope module buffer_row_B2 $end
$var wire 1 ' clk $end
$var wire 8 $" data_in [7:0] $end
$var wire 1 M in_valid $end
$var wire 1 + rst_n $end
$var reg 8 %" data_out [7:0] $end
$var integer 32 &" i [31:0] $end
$upscope $end
$scope module buffer_row_B3 $end
$var wire 1 ' clk $end
$var wire 8 '" data_in [7:0] $end
$var wire 1 L in_valid $end
$var wire 1 + rst_n $end
$var reg 8 (" data_out [7:0] $end
$var integer 32 )" i [31:0] $end
$upscope $end
$scope module buffer_row_B4 $end
$var wire 1 ' clk $end
$var wire 8 *" data_in [7:0] $end
$var wire 1 K in_valid $end
$var wire 1 + rst_n $end
$var reg 8 +" data_out [7:0] $end
$var integer 32 ," i [31:0] $end
$upscope $end
$scope module control $end
$var wire 1 ' clk $end
$var wire 1 ( data_valid $end
$var wire 1 + rst_n $end
$var reg 5 -" counter [4:0] $end
$var reg 5 ." counter_buffer [4:0] $end
$var reg 5 /" counter_input [4:0] $end
$var reg 5 0" counter_pixel [4:0] $end
$var reg 5 1" counter_tiling_collum [4:0] $end
$var reg 5 2" counter_tiling_row [4:0] $end
$var reg 2 3" current_state [1:0] $end
$var reg 1 " done $end
$var reg 4 4" in_valid_A [3:0] $end
$var reg 4 5" in_valid_B [3:0] $end
$var reg 4 6" mux_select [3:0] $end
$var reg 2 7" next_state [1:0] $end
$var reg 1 ! read_data $end
$var reg 1 H set_reg_path_1 $end
$var reg 1 G set_reg_path_2 $end
$var reg 1 F set_reg_path_3 $end
$var reg 1 E set_reg_path_4 $end
$var reg 1 D set_reg_path_5 $end
$var reg 1 C set_reg_path_6 $end
$var reg 1 B set_reg_path_7 $end
$var reg 1 8" start_compute $end
$upscope $end
$scope module pe00 $end
$var wire 1 ' clk $end
$var wire 8 9" left_in [7:0] $end
$var wire 1 + rst_n $end
$var wire 1 H set_reg $end
$var wire 8 :" top_in [7:0] $end
$var wire 16 ;" sum [15:0] $end
$var reg 8 <" bottom_out [7:0] $end
$var reg 16 =" result [15:0] $end
$var reg 8 >" right_out [7:0] $end
$upscope $end
$scope module pe01 $end
$var wire 1 ' clk $end
$var wire 8 ?" left_in [7:0] $end
$var wire 1 + rst_n $end
$var wire 1 G set_reg $end
$var wire 8 @" top_in [7:0] $end
$var wire 16 A" sum [15:0] $end
$var reg 8 B" bottom_out [7:0] $end
$var reg 16 C" result [15:0] $end
$var reg 8 D" right_out [7:0] $end
$upscope $end
$scope module pe02 $end
$var wire 1 ' clk $end
$var wire 8 E" left_in [7:0] $end
$var wire 1 + rst_n $end
$var wire 1 F set_reg $end
$var wire 8 F" top_in [7:0] $end
$var wire 16 G" sum [15:0] $end
$var reg 8 H" bottom_out [7:0] $end
$var reg 16 I" result [15:0] $end
$var reg 8 J" right_out [7:0] $end
$upscope $end
$scope module pe03 $end
$var wire 1 ' clk $end
$var wire 8 K" left_in [7:0] $end
$var wire 1 + rst_n $end
$var wire 1 E set_reg $end
$var wire 8 L" top_in [7:0] $end
$var wire 16 M" sum [15:0] $end
$var reg 8 N" bottom_out [7:0] $end
$var reg 16 O" result [15:0] $end
$var reg 8 P" right_out [7:0] $end
$upscope $end
$scope module pe10 $end
$var wire 1 ' clk $end
$var wire 8 Q" left_in [7:0] $end
$var wire 1 + rst_n $end
$var wire 1 G set_reg $end
$var wire 8 R" top_in [7:0] $end
$var wire 16 S" sum [15:0] $end
$var reg 8 T" bottom_out [7:0] $end
$var reg 16 U" result [15:0] $end
$var reg 8 V" right_out [7:0] $end
$upscope $end
$scope module pe11 $end
$var wire 1 ' clk $end
$var wire 8 W" left_in [7:0] $end
$var wire 1 + rst_n $end
$var wire 1 F set_reg $end
$var wire 8 X" top_in [7:0] $end
$var wire 16 Y" sum [15:0] $end
$var reg 8 Z" bottom_out [7:0] $end
$var reg 16 [" result [15:0] $end
$var reg 8 \" right_out [7:0] $end
$upscope $end
$scope module pe12 $end
$var wire 1 ' clk $end
$var wire 8 ]" left_in [7:0] $end
$var wire 1 + rst_n $end
$var wire 1 E set_reg $end
$var wire 8 ^" top_in [7:0] $end
$var wire 16 _" sum [15:0] $end
$var reg 8 `" bottom_out [7:0] $end
$var reg 16 a" result [15:0] $end
$var reg 8 b" right_out [7:0] $end
$upscope $end
$scope module pe13 $end
$var wire 1 ' clk $end
$var wire 8 c" left_in [7:0] $end
$var wire 1 + rst_n $end
$var wire 1 D set_reg $end
$var wire 8 d" top_in [7:0] $end
$var wire 16 e" sum [15:0] $end
$var reg 8 f" bottom_out [7:0] $end
$var reg 16 g" result [15:0] $end
$var reg 8 h" right_out [7:0] $end
$upscope $end
$scope module pe20 $end
$var wire 1 ' clk $end
$var wire 8 i" left_in [7:0] $end
$var wire 1 + rst_n $end
$var wire 1 F set_reg $end
$var wire 8 j" top_in [7:0] $end
$var wire 16 k" sum [15:0] $end
$var reg 8 l" bottom_out [7:0] $end
$var reg 16 m" result [15:0] $end
$var reg 8 n" right_out [7:0] $end
$upscope $end
$scope module pe21 $end
$var wire 1 ' clk $end
$var wire 8 o" left_in [7:0] $end
$var wire 1 + rst_n $end
$var wire 1 E set_reg $end
$var wire 8 p" top_in [7:0] $end
$var wire 16 q" sum [15:0] $end
$var reg 8 r" bottom_out [7:0] $end
$var reg 16 s" result [15:0] $end
$var reg 8 t" right_out [7:0] $end
$upscope $end
$scope module pe22 $end
$var wire 1 ' clk $end
$var wire 8 u" left_in [7:0] $end
$var wire 1 + rst_n $end
$var wire 1 D set_reg $end
$var wire 8 v" top_in [7:0] $end
$var wire 16 w" sum [15:0] $end
$var reg 8 x" bottom_out [7:0] $end
$var reg 16 y" result [15:0] $end
$var reg 8 z" right_out [7:0] $end
$upscope $end
$scope module pe23 $end
$var wire 1 ' clk $end
$var wire 8 {" left_in [7:0] $end
$var wire 1 + rst_n $end
$var wire 1 C set_reg $end
$var wire 8 |" top_in [7:0] $end
$var wire 16 }" sum [15:0] $end
$var reg 8 ~" bottom_out [7:0] $end
$var reg 16 !# result [15:0] $end
$var reg 8 "# right_out [7:0] $end
$upscope $end
$scope module pe30 $end
$var wire 1 ' clk $end
$var wire 8 ## left_in [7:0] $end
$var wire 1 + rst_n $end
$var wire 1 E set_reg $end
$var wire 8 $# top_in [7:0] $end
$var wire 16 %# sum [15:0] $end
$var reg 8 &# bottom_out [7:0] $end
$var reg 16 '# result [15:0] $end
$var reg 8 (# right_out [7:0] $end
$upscope $end
$scope module pe31 $end
$var wire 1 ' clk $end
$var wire 8 )# left_in [7:0] $end
$var wire 1 + rst_n $end
$var wire 1 D set_reg $end
$var wire 8 *# top_in [7:0] $end
$var wire 16 +# sum [15:0] $end
$var reg 8 ,# bottom_out [7:0] $end
$var reg 16 -# result [15:0] $end
$var reg 8 .# right_out [7:0] $end
$upscope $end
$scope module pe32 $end
$var wire 1 ' clk $end
$var wire 8 /# left_in [7:0] $end
$var wire 1 + rst_n $end
$var wire 1 C set_reg $end
$var wire 8 0# top_in [7:0] $end
$var wire 16 1# sum [15:0] $end
$var reg 8 2# bottom_out [7:0] $end
$var reg 16 3# result [15:0] $end
$var reg 8 4# right_out [7:0] $end
$upscope $end
$scope module pe33 $end
$var wire 1 ' clk $end
$var wire 8 5# left_in [7:0] $end
$var wire 1 + rst_n $end
$var wire 1 B set_reg $end
$var wire 8 6# top_in [7:0] $end
$var wire 16 7# sum [15:0] $end
$var reg 8 8# bottom_out [7:0] $end
$var reg 16 9# result [15:0] $end
$var reg 8 :# right_out [7:0] $end
$upscope $end
$upscope $end
$scope task compare $end
$var integer 32 ;# i [31:0] $end
$upscope $end
$upscope $end
$enddefinitions $end
#0
$dumpvars
bx ;#
b0 :#
b0 9#
b0 8#
b0 7#
b0 6#
b0 5#
b0 4#
b0 3#
b0 2#
b0 1#
b0 0#
b0 /#
b0 .#
b0 -#
b0 ,#
b0 +#
b0 *#
b0 )#
b0 (#
b0 '#
b0 &#
b0 %#
b0 $#
b0 ##
b0 "#
b0 !#
b0 ~"
b0 }"
b0 |"
b0 {"
b0 z"
b0 y"
b0 x"
b0 w"
b0 v"
b0 u"
b0 t"
b0 s"
b0 r"
b0 q"
b0 p"
b0 o"
b0 n"
b0 m"
b0 l"
b0 k"
b0 j"
b0 i"
b0 h"
b0 g"
b0 f"
b0 e"
b0 d"
b0 c"
b0 b"
b0 a"
b0 `"
b0 _"
b0 ^"
b0 ]"
b0 \"
b0 ["
b0 Z"
b0 Y"
b0 X"
b0 W"
b0 V"
b0 U"
b0 T"
b0 S"
b0 R"
b0 Q"
b0 P"
b0 O"
b0 N"
b0 M"
b0 L"
b0 K"
b0 J"
b0 I"
b0 H"
b0 G"
b0 F"
b0 E"
b0 D"
b0 C"
b0 B"
b0 A"
b0 @"
b0 ?"
b0 >"
b0 ="
b0 <"
b0 ;"
b0 :"
b0 9"
x8"
bx 7"
bx 6"
b0 5"
b0 4"
b0 3"
b0 2"
b0 1"
b0 0"
b0 /"
b0 ."
b0 -"
bx ,"
b0 +"
bx *"
bx )"
b0 ("
bx '"
bx &"
b0 %"
bx $"
bx #"
b0 ""
bx !"
bx ~
b0 }
bx |
bx {
b0 z
bx y
bx x
b0 w
bx v
bx u
b0 t
bx s
b0 r
b0 q
b0 p
b0 o
b0 n
b0 m
b0 l
b0 k
b0 j
b0 i
b0 h
b0 g
b0 f
b0 e
b0 d
b0 c
b0 b
b0 a
b0 `
b0 _
b0 ^
b0 ]
b0 \
b0 [
b0 Z
b0 Y
b0 X
b0 W
b0 V
b0 U
b0 T
b0 S
0R
0Q
0P
0O
0N
0M
0L
0K
b0 J
b0 I
xH
xG
xF
xE
xD
xC
xB
b0 A
b0 @
b0 ?
b0 >
b0 =
b0 <
b0 ;
b0 :
b0 9
b0 8
b0 7
b0 6
b0 5
b0 4
b0 3
b0 2
bx 1
bx 0
bx /
bx .
bx -
x,
0+
x*
x)
x(
0'
bx &
bx %
bx $
bx #
0"
x!
$end
#5
b0 #
b0 1
b0 !"
b0 $"
b0 '"
b0 *"
b0 $
b0 0
b0 s
b0 v
b0 y
b0 |
0*
b0 &
0)
b0 %
1'
#10
0'
1+
#15
b0 7"
bx $
bx 0
bx s
bx v
bx y
bx |
bx #
bx 1
bx !"
bx $"
bx '"
bx *"
bx 3"
x)
x*
b100 u
b100 x
b100 {
b100 ~
b100 #"
b100 &"
b100 )"
b100 ,"
1'
#20
0'
#25
08"
b0 3"
b100 ,"
b100 )"
b100 &"
b100 #"
b100 ~
b100 {
b100 x
b100 u
1'
#30
0'
#35
b100 u
b100 x
b100 {
b100 ~
b100 #"
b100 &"
b100 )"
b100 ,"
1'
#40
0'
#45
b100 ,"
b100 )"
b100 &"
b100 #"
b100 ~
b100 {
b100 x
b100 u
1'
#50
b1 7"
0'
1(
#55
b1 3"
b1 ."
b1 /"
1!
b100 u
b100 x
b100 {
b100 ~
b100 #"
b100 &"
b100 )"
b100 ,"
1'
#60
0'
0(
#65
b1 #
b1 1
b1 !"
b1 $"
b1 '"
b1 *"
b100 $
b100 0
b100 s
b100 v
b100 y
b100 |
1N
1R
b1 &
1*
b1 %
1)
b1000 I
b1000 5"
b1000 J
b1000 4"
b10 ."
b10 /"
b100 ,"
b100 )"
b100 &"
b100 #"
b100 ~
b100 {
b100 x
b100 u
1'
#70
0'
#75
b10 $
b10 0
b10 s
b10 v
b10 y
b10 |
b10 #
b10 1
b10 !"
b10 $"
b10 '"
b10 *"
b11 ."
b11 /"
b10 %
b10 &
b100 x
b100 {
b100 ~
b100 &"
b100 )"
b100 ,"
1'
#80
0'
#85
b101 #
b101 1
b101 !"
b101 $"
b101 '"
b101 *"
b1 $
b1 0
b1 s
b1 v
b1 y
b1 |
b11 &
b11 %
b100 ."
b100 /"
b100 ,"
b100 )"
b100 &"
b100 ~
b100 {
b100 x
1'
#90
0'
#95
b10 $
b10 0
b10 s
b10 v
b10 y
b10 |
b11 #
b11 1
b11 !"
b11 $"
b11 '"
b11 *"
b101 ."
b101 /"
b100 %
b100 &
b100 x
b100 {
b100 ~
b100 &"
b100 )"
b100 ,"
1'
#100
0'
#105
b1 #
b1 1
b1 !"
b1 $"
b1 '"
b1 *"
b11 $
b11 0
b11 s
b11 v
b11 y
b11 |
1M
0N
1Q
0R
b101 &
b101 %
b100 I
b100 5"
b100 J
b100 4"
b110 ."
b110 /"
b100 ,"
b100 )"
b100 &"
b100 ~
b100 {
b100 x
1'
#110
0'
#115
b10 $
b10 0
b10 s
b10 v
b10 y
b10 |
b101 #
b101 1
b101 !"
b101 $"
b101 '"
b101 *"
b111 ."
b111 /"
b110 %
b110 &
b100 u
b100 {
b100 ~
b100 #"
b100 )"
b100 ,"
1'
#120
0'
#125
b10 #
b10 1
b10 !"
b10 $"
b10 '"
b10 *"
b101 $
b101 0
b101 s
b101 v
b101 y
b101 |
b111 &
b111 %
b1000 ."
b1000 /"
b100 ,"
b100 )"
b100 #"
b100 ~
b100 {
b100 u
1'
#130
0'
#135
b11 $
b11 0
b11 s
b11 v
b11 y
b11 |
b1 #
b1 1
b1 !"
b1 $"
b1 '"
b1 *"
b1001 ."
b1001 /"
b1000 %
b1000 &
b100 u
b100 {
b100 ~
b100 #"
b100 )"
b100 ,"
1'
#140
0'
#145
b101 #
b101 1
b101 !"
b101 $"
b101 '"
b101 *"
b100 $
b100 0
b100 s
b100 v
b100 y
b100 |
1L
0M
1P
0Q
b1001 &
b1001 %
b10 I
b10 5"
b10 J
b10 4"
b1010 ."
b1010 /"
b100 ,"
b100 )"
b100 #"
b100 ~
b100 {
b100 u
1'
#150
0'
#155
b10 $
b10 0
b10 s
b10 v
b10 y
b10 |
b1011 ."
b1011 /"
b1010 %
b1010 &
b100 u
b100 x
b100 ~
b100 #"
b100 &"
b100 ,"
1'
#160
0'
#165
b11 #
b11 1
b11 !"
b11 $"
b11 '"
b11 *"
b1 $
b1 0
b1 s
b1 v
b1 y
b1 |
b1011 &
b1011 %
b1100 ."
b1100 /"
b100 ,"
b100 &"
b100 #"
b100 ~
b100 x
b100 u
1'
#170
0'
#175
b11 $
b11 0
b11 s
b11 v
b11 y
b11 |
b101 #
b101 1
b101 !"
b101 $"
b101 '"
b101 *"
b1101 ."
b1101 /"
b1100 %
b1100 &
b100 u
b100 x
b100 ~
b100 #"
b100 &"
b100 ,"
1'
#180
0'
#185
b1 $
b1 0
b1 s
b1 v
b1 y
b1 |
1K
0L
1O
0P
b1101 &
b1101 %
b1 I
b1 5"
b1 J
b1 4"
b1110 ."
b1110 /"
b100 ,"
b100 &"
b100 #"
b100 ~
b100 x
b100 u
1'
#190
0'
#195
b11 $
b11 0
b11 s
b11 v
b11 y
b11 |
b1 #
b1 1
b1 !"
b1 $"
b1 '"
b1 *"
b1111 ."
b1111 /"
b1110 %
b1110 &
b100 u
b100 x
b100 {
b100 #"
b100 &"
b100 )"
1'
#200
0'
#205
b10 #
b10 1
b10 !"
b10 $"
b10 '"
b10 *"
b1 $
b1 0
b1 s
b1 v
b1 y
b1 |
b1111 &
b1111 %
b10000 ."
b10000 /"
b1 1"
b100 )"
b100 &"
b100 #"
b100 {
b100 x
b100 u
1'
#210
0'
#215
b10 7"
b100 $
b100 0
b100 s
b100 v
b100 y
b100 |
18"
b10001 ."
b10001 /"
0!
b10000 %
b10000 &
b100 u
b100 x
b100 {
b100 #"
b100 &"
b100 )"
1'
#220
0'
#225
b0 #
b0 1
b0 !"
b0 $"
b0 '"
b0 *"
b0 $
b0 0
b0 s
b0 v
b0 y
b0 |
0K
1N
0O
1R
0*
0)
0B
0C
0D
0E
0F
0G
0H
b1000 I
b1000 5"
b1000 J
b1000 4"
b1 0"
b1 -"
b0 /"
b10 3"
b100 )"
b100 &"
b100 #"
b100 {
b100 x
b100 u
1'
#230
0'
#235
1M
1Q
b100 ;"
b100 Z
b100 t
b100 9"
b1 V
b1 ""
b1 :"
1H
b1100 I
b1100 5"
b1100 J
b1100 4"
b10 0"
b10 -"
b100 x
b100 {
b100 ~
b100 &"
b100 )"
b100 ,"
1'
#240
0'
#245
1L
1P
1G
b1110 I
b1110 5"
b1110 J
b1110 4"
b11 0"
b11 -"
b11 S"
b1 r
b1 <"
b1 R"
b100 A"
b100 f
b100 >"
b100 ?"
b100 2
b100 ="
b1 U
b1 %"
b1 @"
b10 V
b10 ""
b10 :"
b11 Y
b11 w
b11 Q"
b100 ;"
b10 Z
b10 t
b10 9"
b100 ,"
b100 )"
b100 ~
b100 {
1'
#250
0'
#255
1K
1O
b1 Z
b1 t
b1 9"
b10 Y
b10 w
b10 Q"
b100 k"
b100 X
b100 z
b100 i"
b101 ;"
b101 V
b101 ""
b101 :"
b101 U
b101 %"
b101 @"
b10100 G"
b101 T
b101 ("
b101 F"
b100 S"
b10 r
b10 <"
b10 R"
b1010 A"
b10 f
b10 >"
b10 ?"
b1000 2
b1000 ="
b11 Y"
b1 q
b1 B"
b1 X"
b100 e
b100 D"
b100 E"
b100 3
b100 C"
b1 n
b1 T"
b1 j"
b11 c
b11 V"
b11 W"
b11 6
b11 U"
1F
b1111 I
b1111 5"
b1111 J
b1111 4"
b100 0"
b100 -"
b100 ~
b100 ,"
1'
#260
0'
#265
1E
b101 0"
b101 -"
b1 %#
b1 j
b1 l"
b1 $#
b100 q"
b100 `
b100 n"
b100 o"
b100 :
b100 m"
b1 m
b1 Z"
b1 p"
b1111 _"
b11 b
b11 \"
b11 ]"
b11 7
b11 ["
b10 n
b10 T"
b10 j"
b10 c
b10 V"
b10 W"
b111 6
b111 U"
b101 p
b101 H"
b101 ^"
b10100 M"
b100 d
b100 J"
b100 K"
b10100 4
b10100 I"
b1010 Y"
b101 q
b101 B"
b101 X"
b1010 G"
b10 e
b10 D"
b10 E"
b1110 3
b1110 C"
b101 r
b101 <"
b101 R"
b1 f
b1 >"
b1 ?"
b1101 2
b1101 ="
b101 S
b101 +"
b101 L"
b10 A"
b10 U
b10 %"
b10 @"
b11 V
b11 ""
b11 :"
b1 W
b1 }
b1 ##
b100 k"
b10 X
b10 z
b10 i"
b11001 S"
b101 Y
b101 w
b101 Q"
b110 ;"
b10 Z
b10 t
b10 9"
1'
#270
0'
#275
b0 Z
b0 t
b0 9"
b11 Y
b11 w
b11 Q"
b1 X
b1 z
b1 i"
b11 W
b11 }
b11 ##
b0 ;"
b0 V
b0 ""
b0 :"
b1 U
b1 %"
b1 @"
b11 T
b11 ("
b11 F"
b1 S
b1 +"
b1 L"
b1001 S"
b11 r
b11 <"
b11 R"
b10 A"
b10 f
b10 >"
b10 ?"
b10011 2
b10011 ="
b10 q
b10 B"
b10 X"
b11 G"
b1 e
b1 D"
b1 E"
b10000 3
b10000 C"
b10 M"
b10 d
b10 J"
b10 K"
b11110 4
b11110 I"
b1111 e"
b101 o
b101 N"
b101 d"
b100 P"
b10100 5
b10100 O"
b101 k"
b101 n
b101 T"
b101 j"
b1010 Y"
b101 c
b101 V"
b101 W"
b100000 6
b100000 U"
b101 m
b101 Z"
b101 p"
b1010 _"
b10 b
b10 \"
b10 ]"
b1101 7
b1101 ["
b10100 w"
b101 l
b101 `"
b101 v"
b11 a
b11 b"
b11 c"
b1111 8
b1111 a"
b110 %#
b10 j
b10 l"
b10 $#
b1010 q"
b10 `
b10 n"
b10 o"
b1000 :
b1000 m"
b1 +#
b1 i
b1 r"
b1 *#
b100 _
b100 t"
b100 u"
b100 ;
b100 s"
b1 &#
b1 ]
b1 (#
b1 )#
b1 >
b1 '#
1D
0H
b110 0"
b110 -"
1'
#280
0'
#285
1C
0G
b111 0"
b111 -"
b1 ,#
b101 1#
b1 \
b1 .#
b1 /#
b1 ?
b1 -#
b10 &#
b11 ]
b11 (#
b11 )#
b111 >
b111 '#
b101 h
b101 x"
b101 0#
b10100 }"
b100 ^
b100 z"
b100 {"
b10100 <
b10100 y"
b1111 +#
b101 i
b101 r"
b101 *#
b1010 w"
b10 _
b10 t"
b10 u"
b1110 ;
b1110 s"
b101 j
b101 l"
b101 $#
b1 `
b1 n"
b1 o"
b1101 :
b1101 m"
b101 k
b101 f"
b101 |"
b11 h"
b1111 9
b1111 g"
b10 a
b10 b"
b10 c"
b11001 8
b11001 a"
b10 q"
b10 m
b10 Z"
b10 p"
b101 b
b101 \"
b101 ]"
b10111 7
b10111 ["
b11 n
b11 T"
b11 j"
b11 c
b11 V"
b11 W"
b101001 6
b101001 U"
b10 e"
b1 o
b1 N"
b1 d"
b10 P"
b10110 5
b10110 O"
b1111 _"
b11 p
b11 H"
b11 ^"
b1 d
b1 J"
b1 K"
b100001 4
b100001 I"
b11 Y"
b1 q
b1 B"
b1 X"
b10 e
b10 D"
b10 E"
b10010 3
b10010 C"
b0 r
b0 <"
b0 R"
b0 f
b0 >"
b0 ?"
b10 M"
b10 S
b10 +"
b10 L"
b1010 G"
b101 T
b101 ("
b101 F"
b0 A"
b0 U
b0 %"
b0 @"
b101 %#
b1 W
b1 }
b1 ##
b1001 k"
b11 X
b11 z
b11 i"
b0 S"
b0 Y
b0 w
b0 Q"
1'
#290
0'
#295
b0 X
b0 z
b0 i"
b100 W
b100 }
b100 ##
b0 T
b0 ("
b0 F"
b0 q
b0 B"
b0 X"
b0 G"
b0 e
b0 D"
b0 E"
b101 p
b101 H"
b101 ^"
b100 M"
b10 d
b10 J"
b10 K"
b101011 4
b101011 I"
b10 o
b10 N"
b10 d"
b1 P"
b11000 5
b11000 O"
b0 k"
b0 n
b0 T"
b0 j"
b0 Y"
b0 c
b0 V"
b0 W"
b1 m
b1 Z"
b1 p"
b1111 _"
b11 b
b11 \"
b11 ]"
b11010 7
b11010 ["
b11 l
b11 `"
b11 v"
b1010 e"
b101 a
b101 b"
b101 c"
b101000 8
b101000 a"
b1 k
b1 f"
b1 |"
b10 h"
b10001 9
b10001 g"
b1100 %#
b11 j
b11 l"
b11 $#
b11 q"
b11 `
b11 n"
b11 o"
b10110 :
b10110 m"
b10 i
b10 r"
b10 *#
b11 w"
b1 _
b1 t"
b1 u"
b10000 ;
b10000 s"
b10 }"
b10 ^
b10 z"
b10 {"
b11110 <
b11110 y"
b101 7#
b101 g
b101 ~"
b101 6#
b100 "#
b10100 =
b10100 !#
b101 &#
b10 +#
b1 ]
b1 (#
b1 )#
b1100 >
b1100 '#
b101 ,#
b1111 1#
b11 \
b11 .#
b11 /#
b10000 ?
b10000 -#
b101 2#
b1 [
b1 4#
b1 5#
b101 @
b101 3#
1B
0F
b1000 0"
b1000 -"
1'
#300
0'
#305
0E
b1001 0"
b1001 -"
b101 8#
b1 :#
b101 A
b101 9#
b11 [
b11 4#
b11 5#
b10100 @
b10100 3#
b10 ,#
b1 \
b1 .#
b1 /#
b10010 ?
b10010 -#
b11 &#
b100 ]
b100 (#
b100 )#
b11000 >
b11000 '#
b11 7#
b1 g
b1 ~"
b1 6#
b10 "#
b10110 =
b10110 !#
b11 1#
b11 h
b11 x"
b11 0#
b1 ^
b1 z"
b1 {"
b100001 <
b100001 y"
b100 +#
b1 i
b1 r"
b1 *#
b11 _
b11 t"
b11 u"
b10011 ;
b10011 s"
b0 j
b0 l"
b0 $#
b0 `
b0 n"
b0 o"
b10 }"
b10 k
b10 f"
b10 |"
b101 h"
b11011 9
b11011 g"
b1111 w"
b101 l
b101 `"
b101 v"
b110 e"
b11 a
b11 b"
b11 c"
b110111 8
b110111 a"
b0 q"
b0 m
b0 Z"
b0 p"
b0 b
b0 \"
b0 ]"
b10 P"
b11100 5
b11100 O"
b0 _"
b0 p
b0 H"
b0 ^"
b0 d
b0 J"
b0 K"
b0 M"
b0 S
b0 +"
b0 L"
b0 %#
b0 W
b0 }
b0 ##
1'
#310
0'
#315
b0 o
b0 N"
b0 d"
b0 P"
b0 l
b0 `"
b0 v"
b0 e"
b0 a
b0 b"
b0 c"
b11 h"
b100001 9
b100001 g"
b0 i
b0 r"
b0 *#
b0 w"
b0 _
b0 t"
b0 u"
b101 h
b101 x"
b101 0#
b110 }"
b11 ^
b11 z"
b11 {"
b110000 <
b110000 y"
b10 g
b10 ~"
b10 6#
b1 "#
b11000 =
b11000 !#
b0 &#
b0 +#
b0 ]
b0 (#
b0 )#
b1 ,#
b10100 1#
b100 \
b100 .#
b100 /#
b10110 ?
b10110 -#
b11 2#
b10 7#
b1 [
b1 4#
b1 5#
b10111 @
b10111 3#
b1 8#
b11 :#
b1000 A
b1000 9#
0D
b1010 0"
b1010 -"
1'
#320
0'
#325
0C
b1011 0"
b1011 -"
b10 8#
b1 :#
b1010 A
b1010 9#
b101 2#
b1000 7#
b100 [
b100 4#
b100 5#
b101011 @
b101011 3#
b0 ,#
b0 \
b0 .#
b0 /#
b11 "#
b11110 =
b11110 !#
b0 1#
b0 h
b0 x"
b0 0#
b0 ^
b0 z"
b0 {"
b0 }"
b0 k
b0 f"
b0 |"
b0 h"
1'
#330
0'
